{
  "RebornOSFIRE": {
    "ProgramsTab": {
      "AddonsTab": {
        "Addons": "アドオン",
        "ControlMycroft": "マイクロフトを制御する",
        "InstallAnbox": "Anboxをインストールする",
        "RemoveAnbox": "Anboxをアンインストールする",
        "RemoveMycroft": "Mycroftをアンインストールする"
      },
      "Programs": "プログラム",
      "ToolsTab": {
        "ArchKernelManager": "Arch Linuxコアピッカー",
        "PacmanSettings": "パックマンの設定",
        "Pamac": "Pamacプログラム",
        "Stacer": "Stacer",
        "Tools": "ツール"
      },
      "WormholeTab": {
        "EnterCode": "ファイル/フォルダーを受信するコードを入力してください（Enterキーを押します）",
        "SelectFile": "ファイルを選択",
        "SelectFolder": "フォルダーを選択",
        "WhatIsWormhole": "ワームホールとは何ですか？",
        "Wormhole": "Wormhole",
        "WormholeDescription": "つまり、ワームホールは、Airdropに代わる非常に安全でプライベートなオープンソースの代替手段です。 または、ファイル共有サービスです。 また、Airdropとは異なり、Wormholeでは世界中のどのPCともファイルやディレクトリを共有できます。 とにかく、興味があればGithubページはこちらです：https://github.com/warner/magic-wormhole"
      }
    },
    "RebornOSCustomizationTab": {
      "DesktopEnvironmentsTab": {
        "Budgie": "Budgie",
        "Cinnamon": "Cinnamon",
        "Deepin": "Deepin",
        "DesktopEnvironments": "デスクトップ環境",
        "Enlightenment": "Enlightenment",
        "GNOME": "GNOME",
        "InstallButton": "インストール",
        "KDEplasma": "KDE Plasma",
        "LXQt": "LXQt",
        "Mate": "Mate",
        "OpenBox": "OpenBox",
        "XFCE": "XFCE",
        "i3": "i3"
      },
      "DisplayManagersTab": {
        "DisplayManagers": "ディスプレイマネージャー",
        "LightDMColumn": {
          "DefaultDM": "デフォルトDMとして設定",
          "LightDM": "Light Display Manager (Light DM)",
          "TestGreeter": "テストするグリーターを選択：",
          "UseGreeter": "使用するグリーターを選択："
        },
        "SDDMColumn": {
          "DefaultDM": "デフォルトのディスプレイマネージャとして選択",
          "SDDM": "Simple Desktop Display Manager (SDDM)",
          "TestTheme": "テストするテーマを選択：",
          "UseTheme": "使用するテーマを選択："
        }
      },
      "RebornOSCustomization": "RebornOSのカスタマイズ"
    },
    "RollbackTab": {
      "InsertOptionNumber": "元に戻すオプション番号を挿入します（次にEnterキーを押します）",
      "Rollback": "ロールバック",
      "RollbackSystem": "システムを以前の状態に戻す",
      "UpgradeToCurrent": "現在のパッケージに再度アップグレードする"
    },
    "Settings": {
      "DeepinTerminal": "Terminal de Deepin",
      "ExitSettings": "去る",
      "GnomeTerminal": "GNOME端末",
      "Konsole": "Konsole",
      "LXTerminal": "LXTerminal",
      "MateTerminal": "Terminal de MATE",
      "SelectTerminal": "ターミナルを選択...",
      "SettingsDialog": "設定",
      "TerminalSelectionDialog": "使用したい端末を選択",
      "Terminology": "Terminology",
      "Xfce4Terminal": "XFCE4ターミナル",
      "Xterm": "Xterm"
    },
    "SystemTasksTab": {
      "RepairTab": {
        "Apply": "申し込む",
        "Downgrade": "ダウングレード",
        "DowngradeDialog": {
          "DowngradeButton": "ダウングレード",
          "DowngradeInsert": "バージョンをダウングレードするファイルを指定してください"
        },
        "RebuildGrub": "Grubの再構築（ブートローダー）",
        "ReinstallGrub": "Grub（ブートローダー）を再インストールする",
        "RemovePackage": "パッケージを削除する（依存関係を残します）",
        "RemovePackageDialog": {
          "RemoveButton": "パッケージを削除",
          "RemoveInsert": "アンインストールするパッケージを指定してください"
        },
        "Repair": "修復",
        "SaveRecover": "プログラムの保存/回復",
        "SaveRecoverDialog": {
          "RecoverFromButton": "から回復する",
          "SaveToButton": "に保存"
        }
      },
      "SystemMaintenanceTab": {
        "Apply": "申し込む",
        "CacheLeave": "キャッシュのクリア（パッケージの最新の3つの最新バージョンを残す）",
        "CacheRemove": "キャッシュをクリア（キャッシュからすべてのパッケージを削除）",
        "CleanJournal": "ジャーナルを消去",
        "RankMirrors": "ランクミラー",
        "RemoveUnnecessaryPrograms": "不要なプログラムを削除する",
        "RemoveUnnecessaryProgramsDialog": {
          "EditListButton": "編集したリストを保存",
          "RemovePackagesButton": "パッケージを削除"
        },
        "SystemMaintenance": "システム・メンテナンス"
      },
      "SystemTasks": "システムタスク"
    }
  }
}