{
  "RebornOSFIRE": {
    "ProgramsTab": {
      "AddonsTab": {
        "Addons": "Addons",
        "ControlMycroft": "Control Mycroft",
        "InstallAnbox": "Install Anbox",
        "RemoveAnbox": "Remove Anbox",
        "RemoveMycroft": "Remove Mycroft"
      },
      "Programs": "Programs",
      "ToolsTab": {
        "ArchKernelManager": "Arch Kernel Manager",
        "PacmanSettings": "Pacman Settings",
        "Pamac": "Pamac Software",
        "Stacer": "Stacer",
        "Tools": "Tools"
      },
      "WormholeTab": {
        "EnterCode": "Enter code to receive file / folder (press Enter)",
        "SelectFile": "Select File",
        "SelectFolder": "Select Folder",
        "WhatIsWormhole": "What is Wormhole?",
        "Wormhole": "Wormhole",
        "WormholeDescription": "In short, Wormhole is an extremely secure, private, and opensource alternative to Airdrop. Or any filesharing service really. And unlike Airdrop, Wormhole allows you to share a file or directory with any PC in the world. Anyways, here is the Github page if you are interested: https://github.com/warner/magic-wormhole"
      }
    },
    "RebornOSCustomizationTab": {
      "DesktopEnvironmentsTab": {
        "Budgie": "Budgie",
        "Cinnamon": "Cinnamon",
        "Deepin": "Deepin",
        "DesktopEnvironments": "Desktop Environments",
        "Enlightenment": "Enlightenment",
        "GNOME": "GNOME",
        "InstallButton": "Install",
        "KDEplasma": "KDE Plasma",
        "LXQt": "LXQt",
        "Mate": "Mate",
        "OpenBox": "OpenBox",
        "XFCE": "XFCE",
        "i3": "i3"
      },
      "DisplayManagersTab": {
        "DisplayManagers": "Display Managers",
        "LightDMColumn": {
          "DefaultDM": "Set as Default DM",
          "LightDM": "Light Display Manager (Light DM)",
          "TestGreeter": "Select greeter to test:",
          "UseGreeter": "Select greeter to use:"
        },
        "SDDMColumn": {
          "DefaultDM": "Set as Default DM",
          "SDDM": "Simple Desktop Display Manager (SDDM)",
          "TestTheme": "Select theme to test:",
          "UseTheme": "Select theme to use:"
        }
      },
      "RebornOSCustomization": "RebornOS Customization"
    },
    "RollbackTab": {
      "InsertOptionNumber": "Insert Option Number to revert back to (Then press Enter)",
      "Rollback": "Rollback",
      "RollbackSystem": "Rollback your system to a prior state",
      "UpgradeToCurrent": "Upgrade to Current Packages Again"
    },
    "Settings": {
      "DeepinTerminal": "Deepin Terminal",
      "ExitSettings": "Exit",
      "GnomeTerminal": "GNOME Terminal",
      "Konsole": "Konsole",
      "LXTerminal": "LXTerminal",
      "MateTerminal": "MATE Terminal",
      "SelectTerminal": "Select Terminal...",
      "SettingsDialog": "Settings",
      "TerminalSelectionDialog": "Please select your favorite terminal:",
      "Terminology": "Terminology",
      "Xfce4Terminal": "XFCE4 Terminal",
      "Xterm": "Xterm"
    },
    "SystemTasksTab": {
      "RepairTab": {
        "Apply": "Apply",
        "Downgrade": "Downgrade",
        "DowngradeDialog": {
          "DowngradeButton": "Downgrade",
          "DowngradeInsert": "Please insert package to downgrade"
        },
        "RebuildGrub": "Rebuild Grub (bootloader)",
        "ReinstallGrub": "Reinstall Grub (bootloader)",
        "RemovePackage": "Remove Package (leaving dependencies behind)",
        "RemovePackageDialog": {
          "RemoveButton": "Remove Package",
          "RemoveInsert": "Please insert package to remove"
        },
        "Repair": "Repair",
        "SaveRecover": "Save/Recover Programs",
        "SaveRecoverDialog": {
          "RecoverFromButton": "Recover From",
          "SaveToButton": "Save To"
        }
      },
      "SystemMaintenanceTab": {
        "Apply": "Apply",
        "CacheLeave": "Clear Cache (Leaving the last 3 newest versions of packages)",
        "CacheRemove": "Clear Cache (Removing all packages from cache)",
        "CleanJournal": "Clean Journal",
        "RankMirrors": "Rank Mirrors",
        "RemoveUnnecessaryPrograms": "Remove Unnecessary Programs",
        "RemoveUnnecessaryProgramsDialog": {
          "EditListButton": "Save Edited List",
          "RemovePackagesButton": "Remove Packages"
        },
        "SystemMaintenance": "System Maintenance"
      },
      "SystemTasks": "System Tasks"
    }
  }
}
